%YAML 1.1
%TAG !u! tag:unity3d.com,2011:
--- !u!74 &7400000
AnimationClip:
  m_ObjectHideFlags: 0
  m_PrefabParentObject: {fileID: 0}
  m_PrefabInternal: {fileID: 0}
  m_Name: Archer1Attack
  serializedVersion: 6
  m_Legacy: 0
  m_Compressed: 0
  m_UseHighQualityCurve: 1
  m_RotationCurves: []
  m_CompressedRotationCurves: []
  m_EulerCurves: []
  m_PositionCurves: []
  m_ScaleCurves: []
  m_FloatCurves: []
  m_PPtrCurves:
  - curve:
    - time: 0
      value: {fileID: 21300000, guid: cb7b96c22b2dabf4294eb3df94f9fd08, type: 3}
    - time: 0.083333336
      value: {fileID: 21300000, guid: 4e0ce0055bb6a714f8af5d11d0d0c106, type: 3}
    - time: 0.16666667
      value: {fileID: 21300000, guid: 70bbc1afe94156244b87d14be2c6f296, type: 3}
    - time: 0.25
      value: {fileID: 21300000, guid: db6a6ce8a2457034086078fca52b756a, type: 3}
    - time: 0.33333334
      value: {fileID: 21300000, guid: d054d10b20ff38d419e92d94d02c3376, type: 3}
    - time: 0.41666666
      value: {fileID: 21300000, guid: 429bc57d97bb456468f53e23500414a3, type: 3}
    - time: 0.5
      value: {fileID: 21300000, guid: 85d6f856ec7c2054aaab7e15e3ff6637, type: 3}
    - time: 0.5833333
      value: {fileID: 21300000, guid: 47c487cd147c33e4d964f8f595e322ec, type: 3}
    - time: 0.6666667
      value: {fileID: 21300000, guid: 617ce297b939b224d9f5970382330e2b, type: 3}
    - time: 0.75
      value: {fileID: 21300000, guid: d2ed4cfd74205934e887aa3e84b97e19, type: 3}
    - time: 0.8333333
      value: {fileID: 21300000, guid: 0ef74b1995ccf6f4bb3cc31b9276c33a, type: 3}
    - time: 0.9166667
      value: {fileID: 21300000, guid: 18b8271dc1d5a004f9c93c13c7ac4838, type: 3}
    - time: 1
      value: {fileID: 21300000, guid: f2857681184649647a90eb9f39446852, type: 3}
    - time: 1.0833334
      value: {fileID: 21300000, guid: 266351405179df540b2675614c0e8808, type: 3}
    attribute: m_Sprite
    path: 
    classID: 212
    script: {fileID: 0}
  m_SampleRate: 12
  m_WrapMode: 0
  m_Bounds:
    m_Center: {x: 0, y: 0, z: 0}
    m_Extent: {x: 0, y: 0, z: 0}
  m_ClipBindingConstant:
    genericBindings:
    - serializedVersion: 2
      path: 0
      attribute: 0
      script: {fileID: 0}
      typeID: 212
      customType: 23
      isPPtrCurve: 1
    pptrCurveMapping:
    - {fileID: 21300000, guid: cb7b96c22b2dabf4294eb3df94f9fd08, type: 3}
    - {fileID: 21300000, guid: 4e0ce0055bb6a714f8af5d11d0d0c106, type: 3}
    - {fileID: 21300000, guid: 70bbc1afe94156244b87d14be2c6f296, type: 3}
    - {fileID: 21300000, guid: db6a6ce8a2457034086078fca52b756a, type: 3}
    - {fileID: 21300000, guid: d054d10b20ff38d419e92d94d02c3376, type: 3}
    - {fileID: 21300000, guid: 429bc57d97bb456468f53e23500414a3, type: 3}
    - {fileID: 21300000, guid: 85d6f856ec7c2054aaab7e15e3ff6637, type: 3}
    - {fileID: 21300000, guid: 47c487cd147c33e4d964f8f595e322ec, type: 3}
    - {fileID: 21300000, guid: 617ce297b939b224d9f5970382330e2b, type: 3}
    - {fileID: 21300000, guid: d2ed4cfd74205934e887aa3e84b97e19, type: 3}
    - {fileID: 21300000, guid: 0ef74b1995ccf6f4bb3cc31b9276c33a, type: 3}
    - {fileID: 21300000, guid: 18b8271dc1d5a004f9c93c13c7ac4838, type: 3}
    - {fileID: 21300000, guid: f2857681184649647a90eb9f39446852, type: 3}
    - {fileID: 21300000, guid: 266351405179df540b2675614c0e8808, type: 3}
  m_AnimationClipSettings:
    serializedVersion: 2
    m_AdditiveReferencePoseClip: {fileID: 0}
    m_AdditiveReferencePoseTime: 0
    m_StartTime: 0
    m_StopTime: 1.1666667
    m_OrientationOffsetY: 0
    m_Level: 0
    m_CycleOffset: 0
    m_HasAdditiveReferencePose: 0
    m_LoopTime: 0
    m_LoopBlend: 0
    m_LoopBlendOrientation: 0
    m_LoopBlendPositionY: 0
    m_LoopBlendPositionXZ: 0
    m_KeepOriginalOrientation: 0
    m_KeepOriginalPositionY: 1
    m_KeepOriginalPositionXZ: 0
    m_HeightFromFeet: 0
    m_Mirror: 0
  m_EditorCurves: []
  m_EulerEditorCurves: []
  m_HasGenericRootTransform: 0
  m_HasMotionFloatCurves: 0
  m_GenerateMotionCurves: 0
  m_Events:
  - time: 0.41666666
    functionName: AnimAttackEvent
    data: 
    objectReferenceParameter: {fileID: 0}
    floatParameter: 0
    intParameter: 0
    messageOptions: 0
  - time: 1.1666666
    functionName: AnimEndAttack
    data: 
    objectReferenceParameter: {fileID: 0}
    floatParameter: 0
    intParameter: 0
    messageOptions: 0
