%YAML 1.1
%TAG !u! tag:unity3d.com,2011:
--- !u!74 &7400000
AnimationClip:
  m_ObjectHideFlags: 0
  m_PrefabParentObject: {fileID: 0}
  m_PrefabInternal: {fileID: 0}
  m_Name: Archer1Idle
  serializedVersion: 6
  m_Legacy: 0
  m_Compressed: 0
  m_UseHighQualityCurve: 1
  m_RotationCurves: []
  m_CompressedRotationCurves: []
  m_EulerCurves: []
  m_PositionCurves: []
  m_ScaleCurves: []
  m_FloatCurves: []
  m_PPtrCurves:
  - curve:
    - time: 0
      value: {fileID: 21300000, guid: 752aec06dd03cea429e0b3e2614412f3, type: 3}
    - time: 0.083333336
      value: {fileID: 21300000, guid: a399d349e345a77448e089ffa2032251, type: 3}
    - time: 0.16666667
      value: {fileID: 21300000, guid: 792ab2a94205a2c4dbf6d011ddb8f000, type: 3}
    - time: 0.25
      value: {fileID: 21300000, guid: dc12f286ceda4bb478b5e3a627d56f8f, type: 3}
    - time: 0.33333334
      value: {fileID: 21300000, guid: 720b644a828dde747af7472f8971fd92, type: 3}
    - time: 0.41666666
      value: {fileID: 21300000, guid: 39e6604ec1aa2e64a877ff65bf81d3af, type: 3}
    - time: 0.5
      value: {fileID: 21300000, guid: e89a3f6e11bb9164ca76c5b85a12961d, type: 3}
    - time: 0.5833333
      value: {fileID: 21300000, guid: ba247dd7b89be47429c5b62dfe96159d, type: 3}
    attribute: m_Sprite
    path: 
    classID: 212
    script: {fileID: 0}
  m_SampleRate: 12
  m_WrapMode: 0
  m_Bounds:
    m_Center: {x: 0, y: 0, z: 0}
    m_Extent: {x: 0, y: 0, z: 0}
  m_ClipBindingConstant:
    genericBindings:
    - serializedVersion: 2
      path: 0
      attribute: 0
      script: {fileID: 0}
      typeID: 212
      customType: 23
      isPPtrCurve: 1
    pptrCurveMapping:
    - {fileID: 21300000, guid: 752aec06dd03cea429e0b3e2614412f3, type: 3}
    - {fileID: 21300000, guid: a399d349e345a77448e089ffa2032251, type: 3}
    - {fileID: 21300000, guid: 792ab2a94205a2c4dbf6d011ddb8f000, type: 3}
    - {fileID: 21300000, guid: dc12f286ceda4bb478b5e3a627d56f8f, type: 3}
    - {fileID: 21300000, guid: 720b644a828dde747af7472f8971fd92, type: 3}
    - {fileID: 21300000, guid: 39e6604ec1aa2e64a877ff65bf81d3af, type: 3}
    - {fileID: 21300000, guid: e89a3f6e11bb9164ca76c5b85a12961d, type: 3}
    - {fileID: 21300000, guid: ba247dd7b89be47429c5b62dfe96159d, type: 3}
  m_AnimationClipSettings:
    serializedVersion: 2
    m_AdditiveReferencePoseClip: {fileID: 0}
    m_AdditiveReferencePoseTime: 0
    m_StartTime: 0
    m_StopTime: 0.6666666
    m_OrientationOffsetY: 0
    m_Level: 0
    m_CycleOffset: 0
    m_HasAdditiveReferencePose: 0
    m_LoopTime: 1
    m_LoopBlend: 0
    m_LoopBlendOrientation: 0
    m_LoopBlendPositionY: 0
    m_LoopBlendPositionXZ: 0
    m_KeepOriginalOrientation: 0
    m_KeepOriginalPositionY: 1
    m_KeepOriginalPositionXZ: 0
    m_HeightFromFeet: 0
    m_Mirror: 0
  m_EditorCurves: []
  m_EulerEditorCurves: []
  m_HasGenericRootTransform: 0
  m_HasMotionFloatCurves: 0
  m_GenerateMotionCurves: 0
  m_Events: []
