%YAML 1.1
%TAG !u! tag:unity3d.com,2011:
--- !u!74 &7400000
AnimationClip:
  m_ObjectHideFlags: 0
  m_PrefabParentObject: {fileID: 0}
  m_PrefabInternal: {fileID: 0}
  m_Name: BomberMove
  serializedVersion: 6
  m_Legacy: 0
  m_Compressed: 0
  m_UseHighQualityCurve: 1
  m_RotationCurves: []
  m_CompressedRotationCurves: []
  m_EulerCurves: []
  m_PositionCurves: []
  m_ScaleCurves: []
  m_FloatCurves: []
  m_PPtrCurves:
  - curve:
    - time: 0
      value: {fileID: 21300000, guid: 8f6a9e046191d39478dda9d90f65690f, type: 3}
    - time: 0.083333336
      value: {fileID: 21300000, guid: f316f3aa9b2e778458ab978d2435cf0f, type: 3}
    - time: 0.16666667
      value: {fileID: 21300000, guid: 9cd0af288fd3e354f836563215ee0145, type: 3}
    - time: 0.25
      value: {fileID: 21300000, guid: 334ba86888cc9524c838c416c30d5df8, type: 3}
    - time: 0.33333334
      value: {fileID: 21300000, guid: 73bf43e86b066a4479f103da450245d1, type: 3}
    - time: 0.41666666
      value: {fileID: 21300000, guid: f74ad6b13eae8f84bbcb988f0c02d02a, type: 3}
    - time: 0.5
      value: {fileID: 21300000, guid: aaf2424f4936b204e8ed0c81cd0852d7, type: 3}
    - time: 0.5833333
      value: {fileID: 21300000, guid: 80ef66d53f089cf44876011f009fa802, type: 3}
    - time: 0.6666667
      value: {fileID: 21300000, guid: a60711382c660ee4b801f4b069841471, type: 3}
    - time: 0.75
      value: {fileID: 21300000, guid: 1b375cc5e72edf64d8e5ad046280b02a, type: 3}
    - time: 0.8333333
      value: {fileID: 21300000, guid: 4eca393e514ab6942ba562516d0c182e, type: 3}
    - time: 0.9166667
      value: {fileID: 21300000, guid: 975c6fe665598824cb81acf3beb58506, type: 3}
    attribute: m_Sprite
    path: 
    classID: 212
    script: {fileID: 0}
  m_SampleRate: 12
  m_WrapMode: 0
  m_Bounds:
    m_Center: {x: 0, y: 0, z: 0}
    m_Extent: {x: 0, y: 0, z: 0}
  m_ClipBindingConstant:
    genericBindings:
    - serializedVersion: 2
      path: 0
      attribute: 0
      script: {fileID: 0}
      typeID: 212
      customType: 23
      isPPtrCurve: 1
    pptrCurveMapping:
    - {fileID: 21300000, guid: 8f6a9e046191d39478dda9d90f65690f, type: 3}
    - {fileID: 21300000, guid: f316f3aa9b2e778458ab978d2435cf0f, type: 3}
    - {fileID: 21300000, guid: 9cd0af288fd3e354f836563215ee0145, type: 3}
    - {fileID: 21300000, guid: 334ba86888cc9524c838c416c30d5df8, type: 3}
    - {fileID: 21300000, guid: 73bf43e86b066a4479f103da450245d1, type: 3}
    - {fileID: 21300000, guid: f74ad6b13eae8f84bbcb988f0c02d02a, type: 3}
    - {fileID: 21300000, guid: aaf2424f4936b204e8ed0c81cd0852d7, type: 3}
    - {fileID: 21300000, guid: 80ef66d53f089cf44876011f009fa802, type: 3}
    - {fileID: 21300000, guid: a60711382c660ee4b801f4b069841471, type: 3}
    - {fileID: 21300000, guid: 1b375cc5e72edf64d8e5ad046280b02a, type: 3}
    - {fileID: 21300000, guid: 4eca393e514ab6942ba562516d0c182e, type: 3}
    - {fileID: 21300000, guid: 975c6fe665598824cb81acf3beb58506, type: 3}
  m_AnimationClipSettings:
    serializedVersion: 2
    m_AdditiveReferencePoseClip: {fileID: 0}
    m_AdditiveReferencePoseTime: 0
    m_StartTime: 0
    m_StopTime: 1
    m_OrientationOffsetY: 0
    m_Level: 0
    m_CycleOffset: 0
    m_HasAdditiveReferencePose: 0
    m_LoopTime: 1
    m_LoopBlend: 0
    m_LoopBlendOrientation: 0
    m_LoopBlendPositionY: 0
    m_LoopBlendPositionXZ: 0
    m_KeepOriginalOrientation: 0
    m_KeepOriginalPositionY: 1
    m_KeepOriginalPositionXZ: 0
    m_HeightFromFeet: 0
    m_Mirror: 0
  m_EditorCurves: []
  m_EulerEditorCurves: []
  m_HasGenericRootTransform: 0
  m_HasMotionFloatCurves: 0
  m_GenerateMotionCurves: 0
  m_Events: []
